…
### Subsection

``` r
data_2017 %>% 
  select(Q32, hcm2017q24_school:hcm2017q24_met_online)
```

    ## # A tibble: 3,510 x 22
    ##    Q32   hcm2017q24_scho~ hcm2017q24_coll~ hcm2017q24_mil hcm2017q24_chur~
    ##    <fct> <fct>            <fct>            <fct>          <fct>           
    ##  1 <NA>  no               no               no             no              
    ##  2 No, ~ no               no               no             no              
    ##  3 Yes,~ no               no               no             no              
    ##  4 <NA>  no               no               no             no              
    ##  5 No, ~ no               no               no             no              
    ##  6 No, ~ no               no               no             no              
    ##  7 No, ~ no               no               no             no              
    ##  8 No, ~ yes              no               no             no              
    ##  9 <NA>  <NA>             <NA>             <NA>           <NA>            
    ## 10 <NA>  no               no               no             yes             
    ## # ... with 3,500 more rows, and 17 more variables: hcm2017q24_vol_org <fct>,
    ## #   hcm2017q24_customer <fct>, hcm2017q24_bar_restaurant <fct>,
    ## #   hcm2017q24_party <fct>, hcm2017q24_internet_other <fct>,
    ## #   hcm2017q24_internet_dating <fct>, hcm2017q24_internet_soc_network <fct>,
    ## #   hcm2017q24_internet_game <fct>, hcm2017q24_internet_chat <fct>,
    ## #   hcm2017q24_internet_org <fct>, hcm2017q24_public <fct>,
    ## #   hcm2017q24_blind_date <fct>, hcm2017q24_vacation <fct>,
    ## #   hcm2017q24_single_serve_nonint <fct>, hcm2017q24_business_trip <fct>,
    ## #   hcm2017q24_work_neighbors <fct>, hcm2017q24_met_online <fct>
…
