…
``` r
# papglb_status: if respondent is gay, lesbian, or bisexual 

#398 total. 

data_meet %>% 
  filter(
    qflag != "no spouse or partner or otherwise unqualified", 
    respondent_race != partner_race, 
    same_sex_couple == "different sex couple"
  ) %>% 
  count(respondent_race, partner_race, sort = TRUE) 
```

    ## # A tibble: 25 x 3
    ##    respondent_race          partner_race                 n
    ##    <fct>                    <fct>                    <int>
    ##  1 "Hispanic"               "NH white"                 129
    ##  2 "NH white"               "Hispanic"                  67
    ##  3 " NH Asian Pac Islander" "NH white"                  23
    ##  4 "NH white"               " NH black"                 20
    ##  5 " NH black"              "NH white"                  20
    ##  6 " NH black"              "Hispanic"                  18
    ##  7 "Hispanic"               " NH black"                 18
    ##  8 "NH white"               " NH Asian Pac Islander"    17
    ##  9 " NH Amer Indian"        "NH white"                  15
    ## 10 " NH Other"              "NH white"                  13
    ## # … with 15 more rows
…
